{
	"geolocation": {
		"data": {
			"city": "Guadalajara",
			"country": {
				"code": "MX",
				"name": "Mexico"
			},
			"subdivision": {
				"code": "JAL",
				"name": "Jalisco"
			},
			"timezone": "America/Mexico_City",
			"latitude": 20.671,
			"longitude": -103.3299
		},
		"timestamp": 1713399613095
	},
	"siteId": "86b9d196-8c23-4482-ae03-c439b090bb9f"
}